1 WEEK 1: Descriptive statistics and data types | Bioinformatics introductory course - MSc Molekulare Biotechnologie
…
We can do this with vectors obtained from dat. What class is the output in?

is.na(dat$glyhb)

1.2.3 mutate()

mutate() is often used to create a new column based on another column of the dataframe. Let us use this function to mutate two new columns including the weight in kilograms and the height in centimeters. The conversion from pounds to kilograms can be done by multiplying weight in pounds by 0.454. To covert height to centimeters we only need to multiply height (inches) by 2.54.

dat %>%
  mutate(weight.kg = weight * 0.454,        # you can generate both columns using the same mutate!
         height.cm = height * 2.54) %>%     # we do not need to save this output
  select(id, weight.kg, height.cm)

## # A tibble: 403 × 3
##       id weight.kg height.cm
##    <int>     <dbl>     <dbl>
##  1  1000      54.9      157.
##  2  1001      99.0      163.
##  3  1002     116.       155.
##  4  1003      54.0      170.
##  5  1005      83.1      173.
##  6  1008      86.3      180.
##  7  1011      86.7      175.
##  8  1015      77.2      150.
##  9  1016      75.4      175.
## 10  1022      91.7      160.
## # ℹ 393 more rows
…
